<?xml version="1.0" encoding="utf-16"?>
<PPJ xmlns:xsi="http://www.w3.org/2001/XMLSchema-instance" xmlns:xsd="http://www.w3.org/2001/XMLSchema">
  <project>
    <name>pamc.p3000</name>
    <statistics>
      <startDateTime>07.09.2018 10:25:08</startDateTime>
      <endDateTime>07.09.2018 10:25:30</endDateTime>
      <elapsedTime>21,5</elapsedTime>
      <itemsConverted>75170</itemsConverted>
      <filesGenerated>36</filesGenerated>
      <errors>1</errors>
      <warnings>98</warnings>
      <todos>24</todos>
    </statistics>
    <errors>
      <error>
        <code>1022</code>
        <description>Unsupported receive parameter: hWndThisForm.</description>
        <class>mdiProcessMDI3000</class>
        <member>hWndThisForm</member>
      </error>
    </errors>
    <warnings>
      <warning>
        <code>0</code>
        <description>Assembly loaded: C:\WINDOWS\Microsoft.Net\assembly\GAC_MSIL\PPJ.Runtime.Vis.4\v4.0_4.0.1056.0__17bef35e11b84171\PPJ.Runtime.Vis.4.dll</description>
        <class />
        <member />
      </warning>
      <warning>
        <code>0</code>
        <description>Assembly loaded: C:\WINDOWS\Microsoft.Net\assembly\GAC_MSIL\PPJ.Runtime.XSal.4\v4.0_4.0.1056.0__17bef35e11b84171\PPJ.Runtime.XSal.4.dll</description>
        <class />
        <member />
      </warning>
      <warning>
        <code>0</code>
        <description>Assembly loaded: C:\WINDOWS\Microsoft.Net\assembly\GAC_MSIL\PPJ.Runtime.4\v4.0_4.0.1056.0__17bef35e11b84171\PPJ.Runtime.4.dll</description>
        <class />
        <member />
      </warning>
      <warning>
        <code>0</code>
        <description>Assembly loaded: C:\WINDOWS\Microsoft.Net\assembly\GAC_MSIL\PPJ.Runtime.DDE.4\v4.0_4.0.1056.0__17bef35e11b84171\PPJ.Runtime.DDE.4.dll</description>
        <class />
        <member />
      </warning>
      <warning>
        <code>2007</code>
        <description>External library skipped, it's supported in the framework.</description>
        <class>Ext</class>
        <member>qtabi15dll</member>
      </warning>
      <warning>
        <code>2007</code>
        <description>External library skipped, it's supported in the framework.</description>
        <class>Ext</class>
        <member>vti15dll</member>
      </warning>
      <warning>
        <code>2007</code>
        <description>External library skipped, it's supported in the framework.</description>
        <class>Ext</class>
        <member>vti15dll</member>
      </warning>
      <warning>
        <code>2007</code>
        <description>External library skipped, it's supported in the framework.</description>
        <class>Ext</class>
        <member>vti15dll</member>
      </warning>
      <warning>
        <code>2007</code>
        <description>External library skipped, it's supported in the framework.</description>
        <class>Ext</class>
        <member>vti15dll</member>
      </warning>
      <warning>
        <code>2007</code>
        <description>External library skipped, it's supported in the framework.</description>
        <class>Ext</class>
        <member>vti15dll</member>
      </warning>
      <warning>
        <code>2007</code>
        <description>External library skipped, it's supported in the framework.</description>
        <class>Ext</class>
        <member>vti15dll</member>
      </warning>
      <warning>
        <code>2007</code>
        <description>External library skipped, it's supported in the framework.</description>
        <class>Ext</class>
        <member>vti15dll</member>
      </warning>
      <warning>
        <code>2007</code>
        <description>External library skipped, it's supported in the framework.</description>
        <class>Ext</class>
        <member>vti15dll</member>
      </warning>
      <warning>
        <code>2007</code>
        <description>External library skipped, it's supported in the framework.</description>
        <class>Ext</class>
        <member>vti15dll</member>
      </warning>
      <warning>
        <code>2007</code>
        <description>External library skipped, it's supported in the framework.</description>
        <class>Ext</class>
        <member>vti15dll</member>
      </warning>
      <warning>
        <code>2007</code>
        <description>External library skipped, it's supported in the framework.</description>
        <class>Ext</class>
        <member>vti15dll</member>
      </warning>
      <warning>
        <code>2007</code>
        <description>External library skipped, it's supported in the framework.</description>
        <class>Ext</class>
        <member>vti15dll</member>
      </warning>
      <warning>
        <code>2007</code>
        <description>External library skipped, it's supported in the framework.</description>
        <class>Ext</class>
        <member>vti15dll</member>
      </warning>
      <warning>
        <code>2007</code>
        <description>External library skipped, it's supported in the framework.</description>
        <class>Ext</class>
        <member>vti15dll</member>
      </warning>
      <warning>
        <code>2007</code>
        <description>External library skipped, it's supported in the framework.</description>
        <class>Ext</class>
        <member>vti15dll</member>
      </warning>
      <warning>
        <code>2007</code>
        <description>External library skipped, it's supported in the framework.</description>
        <class>Ext</class>
        <member>vti15dll</member>
      </warning>
      <warning>
        <code>2007</code>
        <description>External library skipped, it's supported in the framework.</description>
        <class>Ext</class>
        <member>vti15dll</member>
      </warning>
      <warning>
        <code>2007</code>
        <description>External library skipped, it's supported in the framework.</description>
        <class>Ext</class>
        <member>vti15dll</member>
      </warning>
      <warning>
        <code>2007</code>
        <description>External library skipped, it's supported in the framework.</description>
        <class>Ext</class>
        <member>vti15dll</member>
      </warning>
      <warning>
        <code>2007</code>
        <description>External library skipped, it's supported in the framework.</description>
        <class>Ext</class>
        <member>vti15dll</member>
      </warning>
      <warning>
        <code>2009</code>
        <description>Unsupported property: VertScroll = No.</description>
        <class>dlgCancelCheckRun</class>
        <member>mlOutput</member>
      </warning>
      <warning>
        <code>2009</code>
        <description>Unsupported property: VertScroll = No.</description>
        <class>dlgClaimGenChks</class>
        <member>mlOutput</member>
      </warning>
      <warning>
        <code>2009</code>
        <description>Unsupported property: VertScroll = Yes.</description>
        <class>dlgClearPostedChecks</class>
        <member>mlCHECKNOTE</member>
      </warning>
      <warning>
        <code>2009</code>
        <description>Unsupported property: VertScroll = No.</description>
        <class>dlgClearPostedChecks</class>
        <member>mlOutput</member>
      </warning>
      <warning>
        <code>2009</code>
        <description>Unsupported property: VertScroll = No.</description>
        <class>dlgClearPostedChecks</class>
        <member>mlVoidMsg</member>
      </warning>
      <warning>
        <code>2009</code>
        <description>Unsupported property: VertScroll = No.</description>
        <class>dlgPostChecks</class>
        <member>mlOutput</member>
      </warning>
      <warning>
        <code>2009</code>
        <description>Unsupported property: VertScroll = No.</description>
        <class>dlgPostChecks</class>
        <member>mlPostMsg</member>
      </warning>
      <warning>
        <code>2009</code>
        <description>Unsupported property: VertScroll = No.</description>
        <class>dlgPrintCheckRun</class>
        <member>mlOutput</member>
      </warning>
      <warning>
        <code>2009</code>
        <description>Unsupported property: VertScroll = No.</description>
        <class>dlgReleaseClaims</class>
        <member>mlOutput</member>
      </warning>
      <warning>
        <code>2009</code>
        <description>Unsupported property: VertScroll = No.</description>
        <class>dlgReleaseClaims</class>
        <member>mlSelection</member>
      </warning>
      <warning>
        <code>2009</code>
        <description>Unsupported property: VertScroll = No.</description>
        <class>dlgReplaceChecks</class>
        <member>mlOutput</member>
      </warning>
      <warning>
        <code>2009</code>
        <description>Unsupported property: VertScroll = No.</description>
        <class>dlgReplaceChecks</class>
        <member>mlVoidMsg</member>
      </warning>
      <warning>
        <code>2009</code>
        <description>Unsupported property: VertScroll = No.</description>
        <class>dlgRePrintCheckRun</class>
        <member>mlOutput</member>
      </warning>
      <warning>
        <code>2009</code>
        <description>Unsupported property: VertScroll = No.</description>
        <class>dlgVoidPostedChecks</class>
        <member>mlOutput</member>
      </warning>
      <warning>
        <code>2009</code>
        <description>Unsupported property: VertScroll = No.</description>
        <class>dlgVoidPostedChecks</class>
        <member>mlVoidMsg</member>
      </warning>
      <warning>
        <code>2009</code>
        <description>Unsupported property: VertScroll = Yes.</description>
        <class>frmCHECK_MASTERS</class>
        <member>mlCHECKNOTE</member>
      </warning>
      <warning>
        <code>2009</code>
        <description>Unsupported property: VertScroll = Yes.</description>
        <class>frmCHECK_MASTERS</class>
        <member>mlCHECKNOTENew</member>
      </warning>
      <warning>
        <code>2009</code>
        <description>Unsupported property: FormPages = Dynamic.</description>
        <class>frmImportCheckData</class>
      </warning>
      <warning>
        <code>2009</code>
        <description>Unsupported property: FormPages = Dynamic.</description>
        <class>frmUpdEFTRunNUmber</class>
      </warning>
      <warning>
        <code>2009</code>
        <description>Unsupported property: VertScroll = Yes.</description>
        <class>ValidateCheckAmount</class>
        <member>mlMessage</member>
      </warning>
      <warning>
        <code>2010</code>
        <description>Receive window parameter has been changed to a IN parameter.</description>
        <class>mdiProcessMDI3000</class>
        <member>hWndThisForm</member>
      </warning>
      <warning>
        <code>2020</code>
        <description>Empty code block under the line "If SqlFetchNext( hSql, nInd )".</description>
        <class>dlgPostChecks</class>
        <member>VoidUnBalancedChecks</member>
      </warning>
      <warning>
        <code>2020</code>
        <description>Empty code block under the line "If SalSendValidateMsg( )".</description>
        <class>menuProcessing</class>
        <member>menuItem__Release</member>
      </warning>
      <warning>
        <code>2022</code>
        <description>The unqualified reference to dfPROVID is ambiguous.</description>
        <class>clsDlgInfoTableProviders.tbl1TableWindow</class>
        <member>AM_Initialize</member>
      </warning>
      <warning>
        <code>2022</code>
        <description>The unqualified reference to colVERIFYNEXT is ambiguous.</description>
        <class>clsDlgInfoTableProviders.tbl1TableWindow</class>
        <member>MoveTblCols</member>
      </warning>
      <warning>
        <code>2022</code>
        <description>The unqualified reference to colVERIFY is ambiguous.</description>
        <class>clsDlgInfoTableProviders.tbl1TableWindow</class>
        <member>MoveTblCols</member>
      </warning>
      <warning>
        <code>2022</code>
        <description>The unqualified reference to colCreateBy is ambiguous.</description>
        <class>clsDlgInfoTableProviders.tbl1TableWindow</class>
        <member>MoveTblCols</member>
      </warning>
      <warning>
        <code>2022</code>
        <description>The unqualified reference to colVERIFYDATE is ambiguous.</description>
        <class>clsDlgInfoTableProviders.tbl1TableWindow</class>
        <member>MoveTblCols</member>
      </warning>
      <warning>
        <code>2022</code>
        <description>The unqualified reference to colVERIFYRESULT is ambiguous.</description>
        <class>clsDlgInfoTableProviders.tbl1TableWindow</class>
        <member>MoveTblCols</member>
      </warning>
      <warning>
        <code>2022</code>
        <description>The unqualified reference to colAdjCode is ambiguous.</description>
        <class>dlgAdjust.tblTemp_AdjustsTableWindow</class>
        <member>ProcessLookup</member>
      </warning>
      <warning>
        <code>2022</code>
        <description>The unqualified reference to dfDiag1 is ambiguous.</description>
        <class>dlgCLAIM_MASTERS.tblCLAIM_DetailsTableWindow</class>
        <member>AM_Initialize</member>
      </warning>
      <warning>
        <code>2022</code>
        <description>The unqualified reference to dfDgdesc2 is ambiguous.</description>
        <class>dlgLookupListDiags.tbl1TableWindow</class>
        <member>GetDiags</member>
      </warning>
      <warning>
        <code>2022</code>
        <description>The unqualified reference to dfDiag2 is ambiguous.</description>
        <class>dlgLookupListDiags.tbl1TableWindow</class>
        <member>GetDiags</member>
      </warning>
      <warning>
        <code>2022</code>
        <description>The unqualified reference to dfDiag3 is ambiguous.</description>
        <class>dlgLookupListDiags.tbl1TableWindow</class>
        <member>GetDiags</member>
      </warning>
      <warning>
        <code>2022</code>
        <description>The unqualified reference to dfDiag3 is ambiguous.</description>
        <class>dlgLookupListDiags.tbl1TableWindow</class>
        <member>GetDiags</member>
      </warning>
      <warning>
        <code>2022</code>
        <description>The unqualified reference to dfDiag1 is ambiguous.</description>
        <class>dlgLookupListDiags.tbl1TableWindow</class>
        <member>GetDiags</member>
      </warning>
      <warning>
        <code>2022</code>
        <description>The unqualified reference to dfDiag1 is ambiguous.</description>
        <class>dlgLookupListDiags.tbl1TableWindow</class>
        <member>GetDiags</member>
      </warning>
      <warning>
        <code>2022</code>
        <description>The unqualified reference to dfDiag2 is ambiguous.</description>
        <class>dlgLookupListDiags.tbl1TableWindow</class>
        <member>GetDiags</member>
      </warning>
      <warning>
        <code>2022</code>
        <description>The unqualified reference to dfDgdesc1 is ambiguous.</description>
        <class>dlgLookupListDiags.tbl1TableWindow</class>
        <member>GetDiags</member>
      </warning>
      <warning>
        <code>2022</code>
        <description>The unqualified reference to dfDgdesc3 is ambiguous.</description>
        <class>dlgLookupListDiags.tbl1TableWindow</class>
        <member>GetDiags</member>
      </warning>
      <warning>
        <code>2022</code>
        <description>The unqualified reference to dfDgdesc4 is ambiguous.</description>
        <class>dlgLookupListDiags.tbl1TableWindow</class>
        <member>GetDiags</member>
      </warning>
      <warning>
        <code>2022</code>
        <description>The unqualified reference to dfDiag4 is ambiguous.</description>
        <class>dlgLookupListDiags.tbl1TableWindow</class>
        <member>GetDiags</member>
      </warning>
      <warning>
        <code>2022</code>
        <description>The unqualified reference to dfDiag4 is ambiguous.</description>
        <class>dlgLookupListDiags.tbl1TableWindow</class>
        <member>GetDiags</member>
      </warning>
      <warning>
        <code>2022</code>
        <description>The unqualified reference to pbOrderBy is ambiguous.</description>
        <class>dlgReleaseClaims</class>
        <member>CM_Interrupt</member>
      </warning>
      <warning>
        <code>2022</code>
        <description>The unqualified reference to dfPAYSOURCE is ambiguous.</description>
        <class>frmCHECK_MASTERS</class>
        <member>ProcessLookup</member>
      </warning>
      <warning>
        <code>2022</code>
        <description>The unqualified reference to dfPAYSOURCE is ambiguous.</description>
        <class>frmCHECK_MASTERS</class>
        <member>ProcessLookup</member>
      </warning>
      <warning>
        <code>2022</code>
        <description>The unqualified reference to dfVENDORID is ambiguous.</description>
        <class>frmCHECK_MASTERS</class>
        <member>ProcessLookup</member>
      </warning>
      <warning>
        <code>2022</code>
        <description>The unqualified reference to dfDESCR is ambiguous.</description>
        <class>frmCHECK_MASTERS</class>
        <member>ProcessLookup</member>
      </warning>
      <warning>
        <code>2022</code>
        <description>The unqualified reference to dfMEMBID is ambiguous.</description>
        <class>frmCHECK_MASTERS</class>
        <member>ProcessLookup</member>
      </warning>
      <warning>
        <code>2022</code>
        <description>The unqualified reference to dfPAYEE is ambiguous.</description>
        <class>frmCHECK_MASTERS</class>
        <member>ProcessLookup</member>
      </warning>
      <warning>
        <code>2022</code>
        <description>The unqualified reference to dfPAYEE is ambiguous.</description>
        <class>frmCHECK_MASTERS</class>
        <member>ProcessLookup</member>
      </warning>
      <warning>
        <code>2038</code>
        <description>Class tbl1TableWindow inherits class clsInfoFormTable more than once through clsChildTableNoEdit. This is a case of diamond inheritance that can create serious issues at runtime.</description>
        <class>tbl1TableWindow</class>
        <member />
      </warning>
      <warning>
        <code>2038</code>
        <description>Class tbl1TableWindow inherits class clsInfoFormTable more than once through clsChildTableNoEdit. This is a case of diamond inheritance that can create serious issues at runtime.</description>
        <class>tbl1TableWindow</class>
        <member />
      </warning>
      <warning>
        <code>2038</code>
        <description>Class tbl1TableWindow inherits class clsChildTable more than once through clsChildTableNoEdit. This is a case of diamond inheritance that can create serious issues at runtime.</description>
        <class>tbl1TableWindow</class>
        <member />
      </warning>
      <warning>
        <code>2038</code>
        <description>Class tbl1TableWindow inherits class clsChildTable more than once through clsChildTableNoEdit. This is a case of diamond inheritance that can create serious issues at runtime.</description>
        <class>tbl1TableWindow</class>
        <member />
      </warning>
      <warning>
        <code>2038</code>
        <description>Class tbl1TableWindow inherits class clsInfoFormTable more than once through clsChildTableNoEdit. This is a case of diamond inheritance that can create serious issues at runtime.</description>
        <class>tbl1TableWindow</class>
        <member />
      </warning>
      <warning>
        <code>2038</code>
        <description>Class tbl1TableWindow inherits class clsChildTable more than once through clsChildTableNoEdit. This is a case of diamond inheritance that can create serious issues at runtime.</description>
        <class>tbl1TableWindow</class>
        <member />
      </warning>
      <warning>
        <code>2038</code>
        <description>Class tbl1TableWindow inherits class clsInfoFormTable more than once through clsChildTableNoEdit. This is a case of diamond inheritance that can create serious issues at runtime.</description>
        <class>tbl1TableWindow</class>
        <member />
      </warning>
      <warning>
        <code>2038</code>
        <description>Class tbl1TableWindow inherits class clsChildTable more than once through clsChildTableNoEdit. This is a case of diamond inheritance that can create serious issues at runtime.</description>
        <class>tbl1TableWindow</class>
        <member />
      </warning>
      <warning>
        <code>2038</code>
        <description>Class tbl1TableWindow inherits class clsInfoFormTable more than once through clsChildTableNoEdit. This is a case of diamond inheritance that can create serious issues at runtime.</description>
        <class>tbl1TableWindow</class>
        <member />
      </warning>
      <warning>
        <code>2038</code>
        <description>Class tbl1TableWindow inherits class clsChildTable more than once through clsChildTableNoEdit. This is a case of diamond inheritance that can create serious issues at runtime.</description>
        <class>tbl1TableWindow</class>
        <member />
      </warning>
      <warning>
        <code>2038</code>
        <description>Class tbl1TableWindow inherits class clsInfoFormTable more than once through clsChildTableNoEdit. This is a case of diamond inheritance that can create serious issues at runtime.</description>
        <class>tbl1TableWindow</class>
        <member />
      </warning>
      <warning>
        <code>2038</code>
        <description>Class tbl1TableWindow inherits class clsChildTable more than once through clsChildTableNoEdit. This is a case of diamond inheritance that can create serious issues at runtime.</description>
        <class>tbl1TableWindow</class>
        <member />
      </warning>
      <warning>
        <code>2038</code>
        <description>Class tbl1TableWindow inherits class clsInfoFormTable more than once through clsChildTableNoEdit. This is a case of diamond inheritance that can create serious issues at runtime.</description>
        <class>tbl1TableWindow</class>
        <member />
      </warning>
      <warning>
        <code>2038</code>
        <description>Class tbl1TableWindow inherits class clsInfoFormTable more than once through clsChildTableNoEdit. This is a case of diamond inheritance that can create serious issues at runtime.</description>
        <class>tbl1TableWindow</class>
        <member />
      </warning>
      <warning>
        <code>2038</code>
        <description>Class tbl1TableWindow inherits class clsChildTable more than once through clsChildTableNoEdit. This is a case of diamond inheritance that can create serious issues at runtime.</description>
        <class>tbl1TableWindow</class>
        <member />
      </warning>
      <warning>
        <code>2038</code>
        <description>Class tbl1TableWindow inherits class clsInfoFormTable more than once through clsChildTableNoEdit. This is a case of diamond inheritance that can create serious issues at runtime.</description>
        <class>tbl1TableWindow</class>
        <member />
      </warning>
      <warning>
        <code>2038</code>
        <description>Class tbl1TableWindow inherits class clsChildTable more than once through clsChildTableNoEdit. This is a case of diamond inheritance that can create serious issues at runtime.</description>
        <class>tbl1TableWindow</class>
        <member />
      </warning>
      <warning>
        <code>2038</code>
        <description>Class tbl1TableWindow inherits class clsInfoFormTable more than once through clsChildTableNoEdit. This is a case of diamond inheritance that can create serious issues at runtime.</description>
        <class>tbl1TableWindow</class>
        <member />
      </warning>
      <warning>
        <code>2038</code>
        <description>Class tbl1TableWindow inherits class clsInfoFormTable more than once through clsChildTableNoEdit. This is a case of diamond inheritance that can create serious issues at runtime.</description>
        <class>tbl1TableWindow</class>
        <member />
      </warning>
      <warning>
        <code>2038</code>
        <description>Class tbl1TableWindow inherits class clsChildTable more than once through clsChildTableNoEdit. This is a case of diamond inheritance that can create serious issues at runtime.</description>
        <class>tbl1TableWindow</class>
        <member />
      </warning>
      <warning>
        <code>2038</code>
        <description>Class tbl1TableWindow inherits class clsChildTable more than once through clsChildTableNoEdit. This is a case of diamond inheritance that can create serious issues at runtime.</description>
        <class>tbl1TableWindow</class>
        <member />
      </warning>
      <warning>
        <code>2038</code>
        <description>Class tbl1TableWindow inherits class clsChildTable more than once through clsChildTableNoEdit. This is a case of diamond inheritance that can create serious issues at runtime.</description>
        <class>tbl1TableWindow</class>
        <member />
      </warning>
    </warnings>
    <todos>
      <todo>
        <code>3000</code>
        <description>Obsolete functions or constants used: TBL_Flag_ShowVScroll.</description>
        <class>dlgSearch.tblWhereTableWindow</class>
        <member>PopulateTblWhere</member>
      </todo>
      <todo>
        <code>3006</code>
        <description>Assign back the unsupported receive window parameter.</description>
        <class>mdiProcessMDI3000</class>
        <member>hWndThisForm</member>
      </todo>
      <todo>
        <code>3024</code>
        <description>Class tbl1TableWindow inherits class clsChildTable more than once through clsChildTableNoEdit. We suggest to eliminate diamond inheritance, it can create serious issues depending on the casting to the base class in the code.</description>
        <class>tbl1TableWindow</class>
        <member />
      </todo>
      <todo>
        <code>3024</code>
        <description>Class tbl1TableWindow inherits class clsInfoFormTable more than once through clsChildTableNoEdit. We suggest to eliminate diamond inheritance, it can create serious issues depending on the casting to the base class in the code.</description>
        <class>tbl1TableWindow</class>
        <member />
      </todo>
      <todo>
        <code>3024</code>
        <description>Class tbl1TableWindow inherits class clsInfoFormTable more than once through clsChildTableNoEdit. We suggest to eliminate diamond inheritance, it can create serious issues depending on the casting to the base class in the code.</description>
        <class>tbl1TableWindow</class>
        <member />
      </todo>
      <todo>
        <code>3024</code>
        <description>Class tbl1TableWindow inherits class clsInfoFormTable more than once through clsChildTableNoEdit. We suggest to eliminate diamond inheritance, it can create serious issues depending on the casting to the base class in the code.</description>
        <class>tbl1TableWindow</class>
        <member />
      </todo>
      <todo>
        <code>3024</code>
        <description>Class tbl1TableWindow inherits class clsChildTable more than once through clsChildTableNoEdit. We suggest to eliminate diamond inheritance, it can create serious issues depending on the casting to the base class in the code.</description>
        <class>tbl1TableWindow</class>
        <member />
      </todo>
      <todo>
        <code>3024</code>
        <description>Class tbl1TableWindow inherits class clsInfoFormTable more than once through clsChildTableNoEdit. We suggest to eliminate diamond inheritance, it can create serious issues depending on the casting to the base class in the code.</description>
        <class>tbl1TableWindow</class>
        <member />
      </todo>
      <todo>
        <code>3024</code>
        <description>Class tbl1TableWindow inherits class clsChildTable more than once through clsChildTableNoEdit. We suggest to eliminate diamond inheritance, it can create serious issues depending on the casting to the base class in the code.</description>
        <class>tbl1TableWindow</class>
        <member />
      </todo>
      <todo>
        <code>3024</code>
        <description>Class tbl1TableWindow inherits class clsChildTable more than once through clsChildTableNoEdit. We suggest to eliminate diamond inheritance, it can create serious issues depending on the casting to the base class in the code.</description>
        <class>tbl1TableWindow</class>
        <member />
      </todo>
      <todo>
        <code>3024</code>
        <description>Class tbl1TableWindow inherits class clsChildTable more than once through clsChildTableNoEdit. We suggest to eliminate diamond inheritance, it can create serious issues depending on the casting to the base class in the code.</description>
        <class>tbl1TableWindow</class>
        <member />
      </todo>
      <todo>
        <code>3024</code>
        <description>Class tbl1TableWindow inherits class clsInfoFormTable more than once through clsChildTableNoEdit. We suggest to eliminate diamond inheritance, it can create serious issues depending on the casting to the base class in the code.</description>
        <class>tbl1TableWindow</class>
        <member />
      </todo>
      <todo>
        <code>3024</code>
        <description>Class tbl1TableWindow inherits class clsChildTable more than once through clsChildTableNoEdit. We suggest to eliminate diamond inheritance, it can create serious issues depending on the casting to the base class in the code.</description>
        <class>tbl1TableWindow</class>
        <member />
      </todo>
      <todo>
        <code>3024</code>
        <description>Class tbl1TableWindow inherits class clsChildTable more than once through clsChildTableNoEdit. We suggest to eliminate diamond inheritance, it can create serious issues depending on the casting to the base class in the code.</description>
        <class>tbl1TableWindow</class>
        <member />
      </todo>
      <todo>
        <code>3024</code>
        <description>Class tbl1TableWindow inherits class clsInfoFormTable more than once through clsChildTableNoEdit. We suggest to eliminate diamond inheritance, it can create serious issues depending on the casting to the base class in the code.</description>
        <class>tbl1TableWindow</class>
        <member />
      </todo>
      <todo>
        <code>3024</code>
        <description>Class tbl1TableWindow inherits class clsInfoFormTable more than once through clsChildTableNoEdit. We suggest to eliminate diamond inheritance, it can create serious issues depending on the casting to the base class in the code.</description>
        <class>tbl1TableWindow</class>
        <member />
      </todo>
      <todo>
        <code>3024</code>
        <description>Class tbl1TableWindow inherits class clsInfoFormTable more than once through clsChildTableNoEdit. We suggest to eliminate diamond inheritance, it can create serious issues depending on the casting to the base class in the code.</description>
        <class>tbl1TableWindow</class>
        <member />
      </todo>
      <todo>
        <code>3024</code>
        <description>Class tbl1TableWindow inherits class clsChildTable more than once through clsChildTableNoEdit. We suggest to eliminate diamond inheritance, it can create serious issues depending on the casting to the base class in the code.</description>
        <class>tbl1TableWindow</class>
        <member />
      </todo>
      <todo>
        <code>3024</code>
        <description>Class tbl1TableWindow inherits class clsChildTable more than once through clsChildTableNoEdit. We suggest to eliminate diamond inheritance, it can create serious issues depending on the casting to the base class in the code.</description>
        <class>tbl1TableWindow</class>
        <member />
      </todo>
      <todo>
        <code>3024</code>
        <description>Class tbl1TableWindow inherits class clsChildTable more than once through clsChildTableNoEdit. We suggest to eliminate diamond inheritance, it can create serious issues depending on the casting to the base class in the code.</description>
        <class>tbl1TableWindow</class>
        <member />
      </todo>
      <todo>
        <code>3024</code>
        <description>Class tbl1TableWindow inherits class clsInfoFormTable more than once through clsChildTableNoEdit. We suggest to eliminate diamond inheritance, it can create serious issues depending on the casting to the base class in the code.</description>
        <class>tbl1TableWindow</class>
        <member />
      </todo>
      <todo>
        <code>3024</code>
        <description>Class tbl1TableWindow inherits class clsInfoFormTable more than once through clsChildTableNoEdit. We suggest to eliminate diamond inheritance, it can create serious issues depending on the casting to the base class in the code.</description>
        <class>tbl1TableWindow</class>
        <member />
      </todo>
      <todo>
        <code>3024</code>
        <description>Class tbl1TableWindow inherits class clsInfoFormTable more than once through clsChildTableNoEdit. We suggest to eliminate diamond inheritance, it can create serious issues depending on the casting to the base class in the code.</description>
        <class>tbl1TableWindow</class>
        <member />
      </todo>
      <todo>
        <code>3024</code>
        <description>Class tbl1TableWindow inherits class clsChildTable more than once through clsChildTableNoEdit. We suggest to eliminate diamond inheritance, it can create serious issues depending on the casting to the base class in the code.</description>
        <class>tbl1TableWindow</class>
        <member />
      </todo>
    </todos>
    <references />
    <unusedSymbols />
  </project>
</PPJ>